{
  "faqArray": [
    {
      "id": 1,
      "question": "Bagaimana cara membuat Split Bill?", 
      "answer": "Jawaban"
    },
    {
      "id": 2,
      "question": "Bagaimana cara mengecek status Split Bill?", 
      "answer": "Jawaban"
    },
    {
      "id": 3,
      "question": "Apakah grup Split Bill yang sudah lunas masih dapat dibuka?", 
      "answer": "Jawaban"
    },
    {
      "id": 4,
      "question": "Bagaimana cara mencari kontak teman?", 
      "answer": "Buka halaman Kontak terlebih dahulu, kemudian ketikkan username dari orang yang terkait. Jika usernamenya benar maka profilnya akan terdapat pada hasil pencarian, tetapi jika tidak maka akun tidak ditemukan."
    }        
  ]
}  