{
  "grup" : {
    "id": 1,
    "nama_grup": "ubul-ubul",
    "list_tagihan": [
      {
        "id": 1,
        "nama": "Nadin",
        "profil_image": "/images/profil/default_photo.png",
        "jumlah": 10000
      },
      {
        "id": 2,
        "nama": "Najmi",
        "profil_image": "/images/profil/default_photo.png",
        "jumlah": 2000
      },
      {
        "id": 3,
        "nama": "Acil",
        "profil_image": "/images/profil/default_photo.png",
        "jumlah": 3000
      }
    ],
    "total_tagihan": 15000,
    "nama_restauran": "Pizza Hut Karawang",
    "sudah_lunas": [
      {
        "nama": "Najmi",
        "profil_image": "/images/profil/default_photo.png"
      }
    ],
    "lunas": false
  }
}

